; RUN: llc -march=nuplus < %s | FileCheck %s

define <16 x i32> @shl_v16i32(<16 x i32> %a, <16 x i32> %b) {
; CHECK-LABEL: shl_v16i32:
; CHECK:       shl_i32 v0, v0, v1


  %r = shl <16 x i32> %a, %b
  ret <16 x i32> %r
}

define <8 x i64> @shl_v8i64(<8 x i64> %a, <8 x i64> %b) {
; CHECK-LABEL: shl_v8i64:
; CHECK:       shl_i64 v0, v0, v1

  %r = shl <8 x i64> %a, %b
  ret <8 x i64> %r
}

define <16 x i32> @shl_v16i32_4(<16 x i32> %a) {
; CHECK-LABEL: shl_v16i32_4:
; CHECK:       shli v0, v0, 4

  %r = shl <16 x i32> %a, <i32 4, i32 4, i32 4, i32 4, i32 4, i32 4, i32 4, i32 4, i32 4, i32 4, i32 4, i32 4, i32 4, i32 4, i32 4, i32 4>
  ret <16 x i32> %r
}

define <8 x i64> @shl_v8i64_4(<8 x i64> %a) {
; CHECK-LABEL: shl_v8i64_4:
; CHECK:       moveih s1, 0
; CHECK:       moveil s1, 0
; CHECK:       moveih s0, 0
; CHECK:       moveil s0, 4
; CHECK:       shl_i64 v0, v0, s0_64

  %r = shl <8 x i64> %a, <i64 4, i64 4, i64 4, i64 4, i64 4, i64 4, i64 4, i64 4>
  ret <8 x i64> %r
}

define <16 x i32> @shl_v16i32_3(<16 x i32> %a) {
; CHECK-LABEL: shl_v16i32_3:
; CHECK:       shli v0, v0, 3


  %r = shl <16 x i32> %a, <i32 3, i32 3, i32 3, i32 3, i32 3, i32 3, i32 3, i32 3, i32 3, i32 3, i32 3, i32 3, i32 3, i32 3, i32 3, i32 3>
  ret <16 x i32> %r
}

define <8 x i64> @shl_v8i64_3(<8 x i64> %a) {
; CHECK-LABEL: shl_v8i64_3:
; CHECK:       moveih s1, 0
; CHECK:       moveil s1, 0
; CHECK:       moveih s0, 0
; CHECK:       moveil s0, 3
; CHECK:       shl_i64 v0, v0, s0_64

  %r = shl <8 x i64> %a, <i64 3, i64 3, i64 3, i64 3, i64 3, i64 3, i64 3, i64 3>
  ret <8 x i64> %r
}