; RUN: llc -march=nuplus < %s | FileCheck %s

define void @pointer_float(float*) #0 {
  %2 = alloca float*, align 4
  %3 = alloca float*, align 4
  store float* %0, float** %2, align 4
  %4 = load float*, float** %2, align 4
  store float* %4, float** %3, align 4
  ret void
}

; CHECK-LABEL: pointer_float
; CHECK:       addi sp, sp, -64
; CHECK:       store32 fp, 60(sp)          
; CHECK:       move_i32 fp, sp
; CHECK:       store32 s0, 52(fp)
; CHECK:       store32 s0, 48(fp)
; CHECK:       move_i32 sp, fp
; CHECK:       load32 fp, 60(sp)           
; CHECK:       addi sp, sp, 64
; CHECK:       jret

define void @pointer_double(double*) #0 {
  %2 = alloca double*, align 4
  %3 = alloca double*, align 4
  store double* %0, double** %2, align 4
  %4 = load double*, double** %2, align 4
  store double* %4, double** %3, align 4
  ret void
}

; CHECK-LABEL: pointer_double
; CHECK:       addi sp, sp, -64
; CHECK:       store32 fp, 60(sp)          
; CHECK:       move_i32 fp, sp
; CHECK:       store32 s0, 52(fp)
; CHECK:       store32 s0, 48(fp)
; CHECK:       move_i32 sp, fp
; CHECK:       load32 fp, 60(sp)           
; CHECK:       addi sp, sp, 64
; CHECK:       jret


attributes #0 = { nounwind uwtable "disable-tail-calls"="false" "less-precise-fpmad"="false" "no-frame-pointer-elim"="true" "no-frame-pointer-elim-non-leaf" "no-infs-fp-math"="false" "no-jump-tables"="false" "no-nans-fp-math"="false" "no-signed-zeros-fp-math"="false" "stack-protector-buffer-size"="8" "target-cpu"="nuplus" "unsafe-fp-math"="false" "use-soft-float"="false" }
